<?xml version="1.0" encoding="utf-8"?>
<!-- Generator: Adobe Illustrator 22.1.0, SVG Export Plug-In . SVG Version: 6.00 Build 0)  -->
<svg version="1.1" id="Layer_1" xmlns="http://www.w3.org/2000/svg" xmlns:xlink="http://www.w3.org/1999/xlink" x="0px" y="0px"
	 viewBox="0 0 426.5 401.9" style="enable-background:new 0 0 426.5 401.9;" xml:space="preserve">
<style type="text/css">
	.st0{fill:#424242;}
</style>
<title>lobby</title>
<g>
	<g>
		<path class="st0" d="M340.6,0c0.8,0.9,1.3,2.4,2.3,2.8c7.3,2.5,9.3,7.7,9.2,15.1c-0.3,23.2-0.1,75.7-0.1,99.1
			c-9.3,5.9-18.4,11.6-28.2,17.7c0-25.4,0-80.1,0-106.1c-6.6,0-12.2,0-17.8,0c-39.9,0-79.8,0-119.6,0c-15.6,0-25.8,9.9-28.3,25.2
			c-2.3,13.9-2.9,27.7-2.6,41.6c0,1.9-0.3,3.9,0.1,5.7c0.7,3.9,3.5,8.4,2.3,11.5c-1.6,4.1-6.1,7-9.1,10.1c-10.1,0-19.6-0.1-29.1,0
			c-9.6,0.1-19.2,2.2-28.5,3.7c-10.6,1.7-20.5,7.6-26.4,18.9c0,75,0,151.3,0,227.8c86.2,0,172,0,258.3,0c0-46.1,0-92,0-137.2
			c9.8-6.5,19-12.6,28.6-19c0,58.6,0,116.9,0,175.2c-5.8,7.1-13.2,9.9-22.8,9.9c-89.7-0.3-179.5-0.2-269.2-0.2c-2.4,0-4.8,0.1-7.1,0
			c-10-0.7-13.9-4.7-13.9-14.5c0-83.1,0-166.2,0-249.3c0-14.4,7.5-25.6,16.4-35.9c5.6-6.5,12.1-12.1,18-18.2
			c21.2-22.1,42.4-44.1,63.4-66.3c8-8.6,17.1-14.6,29.2-15.3c0.4,0,0.7-1.5,1-2.3C224.7,0,282.6,0,340.6,0z"/>
		<path class="st0" d="M386.1,177.7c-47.6,29.4-94.2,58.1-141.2,87c-1.6-12.8-2.1-14.8-13.9-20.1c2.1-10.8-4.1-17.1-13.6-22.2
			c8.9-5.5,17.2-10.5,25.4-15.6c11.7-7.3,23.4-14.7,35.2-22c9-5.6,18.1-11.2,27.2-16.8c8.8-5.5,17.6-10.9,26.4-16.5
			c8.5-5.4,17.4-10.3,25.6-16.1c1.4-1,4.4-1,6-0.2c10.3,4.7,17.9,12.2,22.6,22.5c1.4,3.1,0.3,6.8,1.8,10.3
			C388.8,170.6,386.7,174.7,386.1,177.7z"/>
		<path class="st0" d="M208.5,240.6c8.2,7.5,14.6,14,13.4,24.8c-8.4,0-16.8,0-25.9,0C197.4,255.8,203.4,249,208.5,240.6z"/>
	</g>
	<rect x="88.4" y="307.9" class="st0" width="220" height="16.9"/>
	<rect x="88.4" y="253" class="st0" width="85.5" height="12.4"/>
</g>
</svg>
